%YAML 1.1
%TAG !u! tag:unity3d.com,2011:
--- !u!1045 &1
EditorBuildSettings:
  m_ObjectHideFlags: 0
  serializedVersion: 2
  m_Scenes:
  - enabled: 1
    path: Assets/Scenes/Game/Start.unity
    guid: fd72a9d494418414e9cd37b901912dea
  - enabled: 1
    path: Assets/Scenes/Game/Game.unity
    guid: ed0d3bcb6ef6a864aa9f11ce75b4ec60
  m_configObjects: {}
