%YAML 1.1
%TAG !u! tag:unity3d.com,2011:
--- !u!74 &7400000
AnimationClip:
  m_ObjectHideFlags: 0
  m_CorrespondingSourceObject: {fileID: 0}
  m_PrefabInstance: {fileID: 0}
  m_PrefabAsset: {fileID: 0}
  m_Name: Enemy Attack
  serializedVersion: 6
  m_Legacy: 0
  m_Compressed: 0
  m_UseHighQualityCurve: 1
  m_RotationCurves: []
  m_CompressedRotationCurves: []
  m_EulerCurves: []
  m_PositionCurves: []
  m_ScaleCurves: []
  m_FloatCurves: []
  m_PPtrCurves:
  - curve:
    - time: 0
      value: {fileID: -4841373950327372682, guid: 3a690039f54cd7e409568a3d866b0876,
        type: 3}
    - time: 0.13333334
      value: {fileID: -8673514844294777889, guid: 3a690039f54cd7e409568a3d866b0876,
        type: 3}
    - time: 0.28333333
      value: {fileID: -1354770746153378482, guid: 3a690039f54cd7e409568a3d866b0876,
        type: 3}
    - time: 0.41666666
      value: {fileID: 6769801148151173891, guid: 3a690039f54cd7e409568a3d866b0876,
        type: 3}
    - time: 0.56666666
      value: {fileID: 4099890508869839586, guid: 3a690039f54cd7e409568a3d866b0876,
        type: 3}
    - time: 0.7
      value: {fileID: 1123399802714451657, guid: 3a690039f54cd7e409568a3d866b0876,
        type: 3}
    - time: 0.85
      value: {fileID: 4982456507402878949, guid: 3a690039f54cd7e409568a3d866b0876,
        type: 3}
    attribute: m_Sprite
    path: 
    classID: 212
    script: {fileID: 0}
  m_SampleRate: 60
  m_WrapMode: 0
  m_Bounds:
    m_Center: {x: 0, y: 0, z: 0}
    m_Extent: {x: 0, y: 0, z: 0}
  m_ClipBindingConstant:
    genericBindings:
    - serializedVersion: 2
      path: 0
      attribute: 0
      script: {fileID: 0}
      typeID: 212
      customType: 23
      isPPtrCurve: 1
    pptrCurveMapping:
    - {fileID: -4841373950327372682, guid: 3a690039f54cd7e409568a3d866b0876, type: 3}
    - {fileID: -8673514844294777889, guid: 3a690039f54cd7e409568a3d866b0876, type: 3}
    - {fileID: -1354770746153378482, guid: 3a690039f54cd7e409568a3d866b0876, type: 3}
    - {fileID: 6769801148151173891, guid: 3a690039f54cd7e409568a3d866b0876, type: 3}
    - {fileID: 4099890508869839586, guid: 3a690039f54cd7e409568a3d866b0876, type: 3}
    - {fileID: 1123399802714451657, guid: 3a690039f54cd7e409568a3d866b0876, type: 3}
    - {fileID: 4982456507402878949, guid: 3a690039f54cd7e409568a3d866b0876, type: 3}
  m_AnimationClipSettings:
    serializedVersion: 2
    m_AdditiveReferencePoseClip: {fileID: 0}
    m_AdditiveReferencePoseTime: 0
    m_StartTime: 0
    m_StopTime: 0.8666667
    m_OrientationOffsetY: 0
    m_Level: 0
    m_CycleOffset: 0
    m_HasAdditiveReferencePose: 0
    m_LoopTime: 1
    m_LoopBlend: 0
    m_LoopBlendOrientation: 0
    m_LoopBlendPositionY: 0
    m_LoopBlendPositionXZ: 0
    m_KeepOriginalOrientation: 0
    m_KeepOriginalPositionY: 1
    m_KeepOriginalPositionXZ: 0
    m_HeightFromFeet: 0
    m_Mirror: 0
  m_EditorCurves: []
  m_EulerEditorCurves: []
  m_HasGenericRootTransform: 0
  m_HasMotionFloatCurves: 0
  m_Events: []
